stm32f4xx_hal_rcc_ex.c:1933:19:HAL_RCCEx_PeriphCLKConfig	32	static
stm32f4xx_hal_rcc_ex.c:2043:6:HAL_RCCEx_GetPeriphCLKConfig	0	static
stm32f4xx_hal_rcc_ex.c:2077:10:HAL_RCCEx_GetPeriphCLKFreq	0	static
stm32f4xx_hal_rcc_ex.c:2756:6:HAL_RCCEx_SelectLSEMode	0	static
stm32f4xx_hal_rcc_ex.c:3133:19:HAL_RCC_DeInit	16	static
stm32f4xx_hal_rcc_ex.c:3323:19:HAL_RCC_OscConfig	32	static
stm32f4xx_hal_rcc_ex.c:3660:6:HAL_RCC_GetOscConfig	0	static
